{
  "info.sabpaisa.plugin.custom": {
    "source": {
      "type": "local",
      "path": "/Users/lokeshdeshmukh/Desktop/Sabpaisa hybrid plugins/cordova/hello/node_modules/info.sabpaisa.plugin.custom"
    },
    "is_top_level": true,
    "variables": {}
  }
}